{"query":"Bern","iso2":null,"currentPage":1,"itemsPerPage":10,"pages":100,"count":1000,"orderBy":"ranker DESC","lat":null,"lon":null,"radius":20,"type":"name","results":[{"name":"Bern","iso2":"CH","country":"Switzerland","admin1":"Canton of Bern","lat":46.948101,"lon":7.44744,"asl":549,"timezone":"Europe\/Zurich","population":121631,"distance":42.441135,"icao":"","iata":"BRN","postcodes":["3000","3001","3003","3004","3005","3006","3007","3008","3010","3011","3012","3013","3014","3015","3018","3024","3027","3030","3040","3019","3020"],"featureClass":"P","featureCode":"PPLC","url":"bern_switzerland_2661552"},{"name":"Muri bei Bern","iso2":"CH","country":"Switzerland","admin1":"Canton of Bern","lat":46.931198,"lon":7.48658,"asl":558,"timezone":"Europe\/Zurich","population":12374,"distance":39.816502,"icao":"","iata":"","postcodes":["","3074"],"featureClass":"P","featureCode":"PPL","url":"muri-bei-bern_switzerland_2659532"},{"name":"Bernau","iso2":"DE","country":"Germany","admin1":"Baden-W\u00fcrttemberg","lat":47.800201,"lon":8.0383,"asl":916,"timezone":"Europe\/Berlin","population":1993,"distance":89.011986,"icao":"","iata":"","postcodes":["79872"],"featureClass":"P","featureCode":"PPL","url":"bernau_germany_2950099"},{"name":"Bernau im Schwarzwald","iso2":"DE","country":"Germany","admin1":"Baden-W\u00fcrttemberg","lat":47.799999,"lon":8.03333,"asl":932,"timezone":"Europe\/Berlin","population":1892,"distance":88.978119,"icao":"","iata":"","postcodes":[""],"featureClass":"A","featureCode":"ADM4","url":"bernau-im-schwarzwald_germany_6559167"},{"name":"Bernburg","iso2":"DE","country":"Germany","admin1":"Saxony-Anhalt","lat":51.794601,"lon":11.7401,"asl":86,"timezone":"Europe\/Berlin","population":32113,"distance":598.379822,"icao":"","iata":"","postcodes":["06406"],"featureClass":"P","featureCode":"PPLA3","url":"bernburg_germany_2950073"},{"name":"Bernwiller","iso2":"FR","country":"France","admin1":"Alsace-Champagne-Ardenne-Lorraine","lat":47.691399,"lon":7.19083,"asl":285,"timezone":"Europe\/Paris","population":645,"distance":98.221657,"icao":"","iata":"","postcodes":[""],"featureClass":"A","featureCode":"ADM4","url":"bernwiller_france_6450654"},{"name":"Brno","iso2":"CZ","country":"Czech Republic","admin1":"South Moravian","lat":49.195202,"lon":16.608,"asl":226,"timezone":"Europe\/Prague","population":369559,"distance":686.072083,"icao":"","iata":"BRQ","postcodes":[""],"featureClass":"P","featureCode":"PPLA","url":"brno_czech-republic_3078610"},{"name":"Bernwiller","iso2":"FR","country":"France","admin1":"Alsace-Champagne-Ardenne-Lorraine","lat":47.693401,"lon":7.19057,"asl":285,"timezone":"Europe\/Paris","population":616,"distance":98.407524,"icao":"","iata":"","postcodes":["68210"],"featureClass":"P","featureCode":"PPL","url":"bernwiller_france_3033260"},{"name":"Bernex","iso2":"CH","country":"Switzerland","admin1":"Canton of Geneva","lat":46.176498,"lon":6.07544,"asl":451,"timezone":"Europe\/Zurich","population":9759,"distance":173.597549,"icao":"","iata":"","postcodes":["1233"],"featureClass":"P","featureCode":"PPL","url":"bernex_switzerland_2661547"},{"name":"Bernay","iso2":"FR","country":"France","admin1":"Normandy","lat":49.088902,"lon":0.59858,"asl":113,"timezone":"Europe\/Paris","population":12399,"distance":598.761719,"icao":"","iata":"","postcodes":["27300","27301","CEDEX","27302","27303","27304","27305","27306","27307","27308","27309"],"featureClass":"P","featureCode":"PPLA3","url":"bernay_france_3033308"}]}